NFL_Analysis
…
There are 32 teams in the NFL, and 19 years in this dataset. Lets create an aggregated dataset where we combine all of a teams stats.

combined_df <- df %>%
  group_by(team) %>%
  summarise(wins = sum(wins), losses = sum(losses), ties = sum(ties), 
            scored = sum(forced), 
            allowed = sum(allowed),
            net = sum(net)) %>%
  mutate(pct = (wins + 0.5 * ties) / (wins + losses + ties))
print(combined_df)

## # A tibble: 32 x 8
##    team                wins losses  ties scored allowed   net   pct
##    <chr>              <dbl>  <dbl> <dbl>  <dbl>   <dbl> <dbl> <dbl>
##  1 Arizona Cardinals    135    167     2   6340    7149  -809 0.447
##  2 Atlanta Falcons      157    146     1   7089    6905   184 0.518
##  3 Baltimore Ravens     179    125     0   7009    5723  1286 0.589
##  4 Buffalo Bills        139    165     0   6279    6735  -456 0.457
##  5 Carolina Panthers    154    149     1   6557    6599   -42 0.508
##  6 Chicago Bears        147    157     0   6295    6477  -182 0.484
##  7 Cincinnati Bengals   139    161     4   6526    6862  -336 0.464
##  8 Cleveland Browns     100    203     1   5499    7044 -1545 0.331
##  9 Dallas Cowboys       164    140     0   6990    6689   301 0.539
## 10 Denver Broncos       168    136     0   7017    6682   335 0.553
## #  with 22 more rows
…
