NFL_Analysis
…
There are 32 teams in the NFL, and 19 years in this dataset. Lets create an aggregated dataset where we combine all of a teams stats.

combined_df <- df %>%
  group_by(team) %>%
  summarise(wins = sum(wins), losses = sum(losses), ties = sum(ties),
            pct = mean(pct), scored = sum(scored), allowed = sum(allowed),
            net = sum(net), seed = mean(seed))
print(combined_df)

## # A tibble: 35 x 9
##    team   wins losses  ties   pct scored allowed   net  seed
##    <chr> <dbl>  <dbl> <dbl> <dbl>  <dbl>   <dbl> <dbl> <dbl>
##  1 ARI     129    161     2 0.447   6036    6880  -844    NA
##  2 ATL     153    138     1 0.505   6799    6629   170    NA
##  3 BAL     171    121     0 0.592   6684    5497  1187    NA
##  4 BUF     130    162     0 0.467   5901    6462  -561    NA
##  5 CAR     151    140     1 0.518   6306    6299     7    NA
##  6 CHI     143    150     0 0.499   6028    6207  -179    NA
##  7 CIN     135    153     4 0.465   6300    6544  -244    NA
##  8 CLE      92    199     1 0.334   5223    6751 -1528    NA
##  9 DAL     160    132     0 0.536   6715    6347   368    NA
## 10 DEN     164    128     0 0.549   6776    6334   442    NA
## #  with 25 more rows
…
